,Name,Type,Owner,C.diff Patient Days,C.diff Observed Cases,CAUTI: Number of Urinary Catheter Days,CAUTI: Observed Cases,CLABSI: Number of Device Days,CLABSI: Observed Cases,MRSA Patient Days,MRSA Observed Cases,"SSI: Colon, Number of Procedures",SSI: Colon Observed Cases,County,City,State,ZIP
523,CALIFORNIA PACIFIC MEDICAL CTR - ST. LUKE'S CAMPUS,,,22039,15,2874,1,3167,3,23465,2,15,1,SAN FRANCISCO,SAN FRANCISCO,CA,94110
524,CALIFORNIA PACIFIC MEDICAL CTR-DAVIES CAMPUS HOSP,,,22030,13,4436,9,3052,3,22030,0,5,0,SAN FRANCISCO,SAN FRANCISCO,CA,94117
525,CALIFORNIA PACIFIC MEDICAL CTR-PACIFIC CAMPUS HOSP,,,96167,77,17080,14,24188,22,108048,8,222,2,SAN FRANCISCO,SAN FRANCISCO,CA,94115
750,CHINESE HOSPITAL,GENERAL ACUTE CARE,NON-PROFIT,6623,2,684,0,413,0,6623,0,34,0,SAN FRANCISCO,SAN FRANCISCO,CA,94133
2130,KAISER FOUNDATION HOSPITAL - SAN FRANCISCO,,,53153,20,9077,16,8374,6,62665,1,163,4,SAN FRANCISCO,SAN FRANCISCO,CA,94115
2235,LAGUNA HONDA HOSPITAL & REHABILITATION CENTER,,,208,0,43,0,56,0,208,0,0,0,SAN FRANCISCO,SAN FRANCISCO,CA,94116
4019,SAINT FRANCIS MEMORIAL HOSPITAL,,,21362,13,5009,7,4625,6,21362,2,19,0,SAN FRANCISCO,SAN FRANCISCO,CA,94109
4085,SAN FRANCISCO GENERAL HOSPITAL,GENERAL ACUTE CARE,GOVERNMENT - LOCAL,87368,46,10051,16,9230,7,91387,5,78,5,SAN FRANCISCO,SAN FRANCISCO,CA,94110
4664,ST MARY'S MEDICAL CENTER,GENERAL ACUTE CARE,NON-PROFIT,18409,12,2378,0,1523,0,18409,2,24,0,SAN FRANCISCO,SAN FRANCISCO,CA,94117
4665,ST MARY'S MEDICAL CENTER,GENERAL ACUTE CARE,PROPRIETARY,18409,12,2378,0,1523,0,18409,2,24,0,SAN FRANCISCO,SAN FRANCISCO,CA,94117
5027,UCSF MEDICAL CENTER,GENERAL ACUTE CARE,GOVERNMENT - LOCAL,206011,222,26595,54,39412,41,229490,14,521,21,SAN FRANCISCO,SAN FRANCISCO,CA,94143
